"Description","Last seen","Usage","OS","IPv4 address","Policy"
"DESKTOP-8G2BSLI","2018/11/29 17:56:08","10651491","Windows 10","10.60.16.92","normal"
"SD-EPA-UAR-M00","2018/11/29 17:57:41","2580270","Windows 10","10.60.16.173","normal"
"UP069","2018/11/29 17:54:51","1604112.0000000002","Windows 10","10.60.16.113","normal"
"LAPTOP-JMGIT29D","2018/11/29 17:52:19","1509290","Windows 10","10.60.16.155","normal"
"IB01TILT04","2018/11/29 17:56:17","907417","Windows 10","10.60.16.167","normal"
"ICSC-76508","2018/11/29 17:59:04","630764","Windows 10","10.60.16.206","normal"
"SPE-GRMESONDO","2018/11/29 17:52:19","555180","Windows 7","10.60.16.238","normal"
"SD-EA2-UAR-M03","2018/11/29 17:53:48","474630.99999999994","Windows 10","10.60.16.157","normal"
"jhandal11","2018/11/29 14:47:37","441343","Mac OS X 10.12","10.60.16.148","normal"
"AlexandesiPhone","2018/11/29 16:19:22","391269","Apple iPhone","10.60.16.73","normal"
"Android-2","2018/11/29 18:05:07","379667","Nexus","10.60.16.187","normal"
"MacBook-Pro-de-Alejandra","2018/11/29 15:17:41","355386","Mac OS X 10.13","10.60.16.158","normal"
"DESKTOP-2B22E83","2018/11/29 17:57:41","324294","Windows 10","10.60.16.152","normal"
"LAPTOP-CARLOS","2018/11/29 18:04:31","247961","Windows 10","10.60.16.150","normal"
"DESKTOP-E69NADH","2018/11/29 16:27:50","244039.99999999997","Windows 10","10.60.16.152","normal"
"HUAWEI_Mate_10_Pro-7c5ec7","2018/11/29 18:03:01","221688","Android","10.60.16.53","normal"
"Honor_7X-12486ad1cee3f7a5","2018/11/29 17:59:04","216939","Android","10.60.16.148","normal"
"EA-CTE-PC02-DH","2018/11/29 18:03:01","188839","Windows 10","10.60.16.153","normal"
"LAPTOP-1P4QTCJS","2018/11/29 17:54:51","181065","Windows 10","10.60.16.57","normal"
"Android","2018/11/29 18:07:03","135898","Android","10.60.16.156","normal"
"00:18:0a:07:ea:c0","2018/11/30 06:15:06","79404.79003755852","Meraki","192.168.95.1","normal"
"Android","2018/11/29 18:03:01","77930","Android","10.60.16.189","normal"
"iPhonedlejandra","2018/11/29 18:05:36","49515","Apple iPhone","10.60.16.104","normal"
"iPhonedeJavier","2018/11/29 17:59:14","38717","Apple iPhone","10.60.16.115","normal"
"Android","2018/11/29 12:16:06","37517","Android","10.60.16.107","normal"
"Android-3","2018/11/29 18:05:07","30305","Android","10.60.16.201","normal"
"Android-4","2018/11/29 09:05:34","27230","Android","10.60.16.121","normal"
"40:4e:36:89:fc:5b","2018/11/29 18:09:36","25374","Android","10.60.16.119","normal"
"PCFREAK","2018/11/29 17:53:48","13654","Windows 10","10.60.16.216","normal"
"m00180a464e14","2018/11/30 06:14:40","2973.9279928103374","Meraki","1.1.1.1","normal"
"cc:03:d9:47:48:40","2018/11/30 06:13:59","2756.6506233072223","Meraki","10.240.10.1","normal"
"00:15:c6:2f:e4:51","2018/11/30 06:15:06","2108.1952946777324","Other","","normal"
"COOL-PC","2018/11/29 08:54:53","1497","Windows 7","10.60.16.99","normal"
"00:18:0a:4f:00:01","2018/11/30 06:15:04","931.3863141153302","Meraki","192.168.100.5","normal"
"Admins-iMac-8","2018/11/30 06:12:19","875","Mac OS X","10.60.16.161","normal"
"a0:f3:c1:c4:5b:fd","2018/11/30 06:10:20","812.5765836687027","Generic Linux","10.39.100.7","normal"
"SD-FCSI-LS-N05","2018/11/30 06:09:16","596","Mac OS X","10.60.16.247","normal"
"Admins-iMac-4","2018/11/29 18:05:36","587","Mac OS X","10.60.16.162","normal"
"hst-ms320-24p-00180ac912ce","2018/11/30 06:07:14","550.864875503054","Meraki","10.39.100.1","normal"
"ASmistrators-iMac","2018/11/30 05:12:29","496","Mac OS X","10.60.16.191","normal"
"m00180a464e14","2018/11/30 05:45:09","140","Meraki","192.168.95.49","normal"
"poc-dc1-primary-mx60-00180a474840","2018/11/30 05:51:18","133","Meraki","192.168.95.54","normal"
"poc-dc1-spare-mx60-00180a475920","2018/11/30 06:13:07","132","Meraki","192.168.95.53","normal"
"poc-mr12-00180a2219fc","2018/11/30 05:59:51","131","Meraki","192.168.95.59","normal"
"poc-dc2-primary-mx60-00180a4758ae","2018/11/30 06:08:48","121","Meraki","192.168.95.50","normal"
"hst-se-lab-mv21-0c8ddb95a126","2018/11/30 06:13:52","110","Meraki","192.168.95.46","normal"
"mobile-mv12n-3456fea40681","2018/11/29 18:07:03","66","Meraki","10.60.16.131","normal"
"piaware","2018/11/29 18:54:08","30","Debian-based Linux","10.60.16.136","normal"
"00:18:0a:47:58:ae","2018/11/30 05:33:12","7","Meraki","10.240.10.8","normal"
"00:18:0a:47:48:40","2018/11/30 03:33:12","5","Meraki","10.240.10.1","normal"
"fc:45:96:16:2e:28","2018/11/29 15:22:17","3","Other","","normal"